regions,area
Valle d'Aosta,Nord-ovest
Liguria,Nord-ovest
Lombardia,Nord-ovest
Piemonte,Nord-ovest
P.A. Trento,Nord-est
P.A. Bolzano,Nord-est
Veneto,Nord-est
Friuli Venezia Giulia,Nord-est
Emilia-Romagna,Nord-est
Toscana,Centro
Umbria,Centro
Marche,Centro
Lazio,Centro
Abruzzo,Sud
Molise,Sud
Campania,Sud
Puglia,Sud
Basilicata,Sud
Calabria,Sud
Sicilia,Isole
Sardegna,Isole
